// Jest Snapshot v1, https://goo.gl/fbAQLP

exports[`PostCommentFromUser Test Should render correctly 1`] = `
<div
  className="container"
>
  <div
    className="userName"
  >
    <h3>
      Author: 
    </h3>
  </div>
  <hr />
  <div />
</div>
`;
